1 10 20
1 1 1
1 2 2
816832 658661 504
130700 630684 509
50873 569710 470
403817 188787 443
221242 995768 525
389239 213911 443
383224 477872 449
260466 578106 470
18734 22473 274
635010 540488 509
604405 757024 509
904390 882715 445
826488 322929 509
625997 901573 525
34630 876483 525
221711 926705 525
152572 795985 509
619797 649612 509
671056 451985 509
149421 699529 509
536670 687668 509
951250 582404 525
720139 977665 525
402948 311139 441
998483 586133 525
574973 798417 509
17750 428704 449
529948 357837 470
16468 757987 509
357956 464768 449
684700 238550 509
200492 265228 443
509568 454883 444
157375 189258 370
615333 404615 470
893797 424697 525
544585 69296 470
968780 937887 507
646849 726358 504
391658 189809 443
741859 268390 509
679811 689243 398
507005 429664 444
738734 49040 509
601910 484883 470
214600 267175 443
887852 681414 525
579860 541244 452
225685 393803 443
104014 43157 351
243170 748162 509
34514 730262 509
151091 254059 443
766903 449744 509
157251 802824 509
518620 305084 470
278444 243727 407
37494 496537 449
382687 633281 509
173835 621962 470
107512 167945 383
724101 730054 362
894821 756806 525
814472 254889 509
758789 168347 509
234302 328910 407
560523 694218 509
552213 870841 525
501677 312921 449
551741 275730 470
268929 407676 441
508786 496201 426
762211 195204 509
99703 797178 509
621822 156008 470
276741 490754 449
833001 921731 525
276633 513528 470
531298 271494 470
38490 795678 509
758034 116624 509
698745 989168 525
322372 611998 470
503773 271921 449
115005 822246 509
434875 625457 470
188187 692365 509
75698 195383 383
667816 424813 509
768747 87330 509
95482 748976 509
905508 225297 525
111920 983880 525
273790 705063 509
487965 241390 449
746250 412229 509
385151 594598 470
235682 542602 470
385265 544950 470
765475 62089 509
266697 661660 509
707763 73865 509
725098 838285 525
727151 522575 509
236885 213830 443
734475 658419 504
46325 439595 449
202930 208438 373
820420 637963 504
527994 257945 470
860540 95645 525
722924 431991 509
885735 461441 525
633201 84887 509
309855 977348 525
26161 855255 525
623128 61895 470
366149 124701 443
958534 385872 525
820861 630163 504
174309 433161 449
61191 723109 509
816135 423158 509
714694 543210 509
136045 386337 443
911916 679752 525
939812 130756 525
225186 730970 509
410540 814884 509
441049 539670 470
213440 850900 525
30406 782882 509
125212 902643 525
884480 23995 525
151210 813710 509
870123 297705 525
594524 403700 470
24567 791276 509
823357 204438 509
757550 210061 509
546526 372994 470
257885 970832 525
251680 214665 443
411871 453457 418
86761 976572 525
932552 159552 525
872501 831347 525
71676 776209 509
122192 260409 443
240320 823536 509
