208995 580596 470
953359 224068 525
732208 664170 504
159569 323024 443
185930 330399 443
278840 58214 443
288880 610588 470
712082 963622 525
580309 399741 470
37354 446679 449
175162 397865 443
741843 808504 468
980629 245824 525
467153 404497 449
122508 804702 509
193685 497909 449
664673 332716 509
706208 849339 525
862649 213655 525
274581 599397 470
46625 942017 525
916002 778563 525
285623 612100 470
737875 921244 525
6568 998074 525
767632 400530 509
636344 433605 509
905346 166822 525
968450 566174 525
608794 369057 470
999969 391442 525
828726 258117 509
573512 698051 509
176388 703007 509
497561 162411 449
917941 300044 525
423500 306907 449
272231 264539 407
34503 616620 470
892460 77642 525
224121 269029 443
785747 107322 509
961050 974775 458
473520 411699 444
823880 387436 509
238601 895274 525
707372 628251 504
747930 961024 525
207451 935025 525
372808 477240 449
936408 387447 525
105264 313297 443
985262 263270 525
889466 804813 525
730293 522479 509
797461 749598 468
240039 508994 449
164963 62618 383
896429 655646 525
588669 237752 470
695300 329244 509
106513 246575 443
408731 983667 525
741999 713640 424
877246 174450 525
209946 145225 383
721646 89206 509
290522 617979 470
142887 192057 383
333041 462946 449
914609 697640 525
138757 476884 449
253254 535650 470
22268 119285 354
461449 426391 444
695894 697460 336
437257 840908 525
826070 406732 509
385987 565761 470
54329 564971 470
953297 277082 525
600128 432935 470
900440 567126 525
111126 447640 449
410705 283940 449
212409 552659 470
93639 257459 443
991553 583336 525
964431 290548 525
276229 310122 389
475603 90657 449
745578 274401 509
219567 415192 449
840539 321149 525
343178 247475 407
102632 773635 509
877272 798556 525
834859 937115 525
748581 367131 509
219558 688810 509
6608 822473 509
307403 112786 443
635895 375070 509
408575 878231 525
949063 412686 525
238176 400102 441
395130 206444 443
753377 854139 525
2524 196381 383
79286 568425 470
541851 459938 470
611696 61327 470
836238 495228 509
151698 534655 470
30789 616147 470
313310 263734 407
158419 147084 383
30022 793354 509
65042 482064 449
517584 128945 470
67425 94556 351
949052 808551 525
995418 941893 458
400475 340122 441
292566 514525 470
844539 712702 525
895839 864210 445
194343 998839 525
123434 72830 354
429320 276917 449
522740 804359 509
187164 494927 449
972085 46314 525
672552 652500 442
435949 705939 509
45347 528668 470
167052 509741 449
931343 920126 476
566216 482812 470
347386 856974 525
784469 228799 509
36404 411527 449
384219 527423 470
210082 872527 525
928775 460848 525
977561 58189 525
812702 132656 509
507581 298765 449
967582 397547 525
612101 11437 470
822597 928430 525
651101 665745 442
36347 859811 525
982179 556791 525
542257 637967 509
599059 991752 525
569186 869426 525
600069 804946 509
969354 19035 525
352208 904736 525
938442 589102 525
786343 75622 509
366648 495329 449
37468 314467 443
70268 954032 525
562184 197179 470
944708 130769 525
565896 979586 525
20406 968539 525
939882 289821 525
71435 865897 525
579625 93167 470
242184 374688 441
897131 293452 525
89469 714472 509
886458 203187 525
693965 365884 509
572787 80298 470
968856 862660 507
971692 333732 525
510027 640393 509
69754 685850 509
315592 693700 509
918679 245867 525
640594 31116 509
957104 172218 525
540791 837239 509
840701 663030 525
193337 138119 383
857850 89321 525
414238 890877 525
259186 516546 470
809988 608 509
631511 344498 509
29882 837267 509
193273 252095 443
437690 906644 525
400807 768279 509
973584 964849 458