479953 927328 525
961659 47710 525
50456 900611 525
560021 559354 284
17067 658569 509
200001 500000 449
827093 771183 468
412023 226991 449
10000 10 262
700004 999999 525
467588 260569 449
347530 142440 443
194756 470311 449
256743 319971 407
14545 48674 324
403443 832380 509
458422 829627 509
435932 1000000 525
199240 1000000 525
297474 767153 509
409765 1000000 525
659608 194969 509
23608 725446 509
375771 808539 509
400008 800002 509
99977 1000000 525
107989 502031 449
177698 283413 443
700001 1000000 525
41941 899929 525
911321 698619 525
57841 718072 509
200010 500009 449
326131 1000000 525
659640 198703 509
228905 689411 509
187078 622910 470
48544 109822 354
5 300005 443
209191 59726 383
469444 500583 426
354513 994686 525
733168 838344 525
570594 821198 509
213233 1000000 525
264129 399600 441
368967 718836 509
261835 652597 509
1 1000000 525
900890 785987 525
398146 1000000 525
357943 727898 509
377244 379535 361
373949 733817 509
997866 777030 525
365742 771222 509
249005 1000000 525
100 100 26
29171 943889 525
48064 1000000 525
294221 1000000 525
1 300000 443
764519 523263 509
158247 1000000 525
1000000 800000 525
284300 78627 443
192511 719130 509
505173 95618 449
350637 612573 470
2 999999 525
18124 631987 509
1000000 1 525
244503 1000000 525
412098 1000000 525
265922 559760 470
257277 736444 509
76699 1000000 525
1 1 1
45395 601250 470
772548 946168 525
200000 200000 130
401351 1000000 525
319707 1000000 525
5994 160351 383
231531 585564 470
426777 867290 525
900000 900000 158
10000 10000 30
175228 1000000 525
238652 846476 525
247803 620128 470
616248 731063 509
800000 800000 132
396424 1000000 525
20 1 21
351732 1000000 525
284496 742027 509
181433 561642 470
400001 800000 509
60092 875573 525
275885 1000000 525
240761 1000000 525
376086 737147 509
289736 915254 525
363665 546803 470
311794 1000000 525
712172 464055 509
1000000 1000000 153
632940 856217 525
340719 1000000 525
54056 483746 449
310443 660316 509
22 53 112
500000 500000 152
147675 253111 443
152403 1000000 525
138610 81963 354
239179 425136 449
293208 382733 441
10 10 7
344152 1000000 525
2 2 2
4065 184702 383
10 1 20
111597 323146 443
361077 996881 525
